<deployment-project plugin="plugin.ezdeploy" plugin-version="1.0">
  <configuration file="C:\Users\Sylmarie\Documents\MATLAB\Shimmer Matlab Instrument Driver v2.8\Shimmer Matlab Instrument Driver v2.8\ShimmertoLSLapp_np.prj" location="C:\Users\Sylmarie\Documents\MATLAB\Shimmer Matlab Instrument Driver v2.8\Shimmer Matlab Instrument Driver v2.8" name="ShimmertoLSLapp_np" target="target.ezdeploy.standalone" target-name="Application Compiler">
    <param.appname>ShimmertoLSLapp_np</param.appname>
    <param.icon />
    <param.icons />
    <param.version>1.0</param.version>
    <param.authnamewatermark>SylmarieDM</param.authnamewatermark>
    <param.email>davilasy@msu.edu</param.email>
    <param.company>Michigan State University</param.company>
    <param.summary />
    <param.description>This app connects the Shimmer device to the LSL framework. Data collected includes accelerometer, gyroscope, magnetometer, and PPG sensor signals.
Requirements - Download and install the following applications: Realterm Serial Terminal, Visual Studio Build tools, and MATLAB Runtime (R2019b).</param.description>
    <param.screenshot>C:\Users\Sylmarie\Pictures\Custom screen for ShimmerLSLapp.png</param.screenshot>
    <param.guid />
    <param.installpath.string>\Michigan State University\ShimmertoLSLapp_np\</param.installpath.string>
    <param.installpath.combo>option.installpath.programfiles</param.installpath.combo>
    <param.logo />
    <param.install.notes />
    <param.target.install.notes />
    <param.intermediate>${PROJECT_ROOT}\ShimmertoLSLapp_np\for_testing</param.intermediate>
    <param.files.only>${PROJECT_ROOT}\ShimmertoLSLapp_np\for_redistribution_files_only</param.files.only>
    <param.output>${PROJECT_ROOT}\ShimmertoLSLapp_np\for_redistribution</param.output>
    <param.logdir>${PROJECT_ROOT}\ShimmertoLSLapp_np</param.logdir>
    <param.enable.clean.build>false</param.enable.clean.build>
    <param.user.defined.mcr.options />
    <param.target.type>subtarget.standalone</param.target.type>
    <param.support.packages />
    <param.web.mcr>true</param.web.mcr>
    <param.package.mcr>false</param.package.mcr>
    <param.no.mcr>false</param.no.mcr>
    <param.web.mcr.name>MyAppInstaller_web</param.web.mcr.name>
    <param.package.mcr.name>MyAppInstaller_mcr</param.package.mcr.name>
    <param.no.mcr.name>MyAppInstaller_app</param.no.mcr.name>
    <param.windows.command.prompt>true</param.windows.command.prompt>
    <param.create.log>false</param.create.log>
    <param.log.file />
    <param.native.matlab>false</param.native.matlab>
    <param.checkbox>false</param.checkbox>
    <param.example />
    <param.help.text>Syntax 
	  -? 
	 
 Input Arguments 
	 -?  print help on how to use the application 
	 input arguments 
 Description 
 	 This app connects the Shimmer device to the LSL framework. Data collected includes accelerometer, gyroscope, magnetometer, and PPG sensor signals.
Requirements - Download and install the following applications: Realterm Serial Terminal, Visual Studio Build tools, and MATLAB Runtime (R2019b).</param.help.text>
    <unset>
      <param.icon />
      <param.icons />
      <param.version />
      <param.summary />
      <param.guid />
      <param.installpath.string />
      <param.installpath.combo />
      <param.logo />
      <param.install.notes />
      <param.target.install.notes />
      <param.intermediate />
      <param.files.only />
      <param.output />
      <param.logdir />
      <param.enable.clean.build />
      <param.user.defined.mcr.options />
      <param.target.type />
      <param.support.packages />
      <param.web.mcr />
      <param.package.mcr />
      <param.no.mcr />
      <param.web.mcr.name />
      <param.package.mcr.name />
      <param.no.mcr.name />
      <param.windows.command.prompt />
      <param.create.log />
      <param.log.file />
      <param.native.matlab />
      <param.checkbox />
      <param.example />
    </unset>
    <fileset.main>
      <file>${PROJECT_ROOT}\ShimmertoLSLapp_np.mlapp</file>
    </fileset.main>
    <fileset.resources>
      <file>${PROJECT_ROOT}\ShimmerBiophysicalProcessingLibrary_Rev_0_10.jar</file>
    </fileset.resources>
    <fileset.package />
    <fileset.depfun>
      <file>C:\Users\Sylmarie\Documents\LSL framework\App-MATLABViewer-master\liblsl-Matlab\bin\lsl_append_child.mexw64</file>
      <file>C:\Users\Sylmarie\Documents\LSL framework\App-MATLABViewer-master\liblsl-Matlab\bin\lsl_append_child_value.mexw64</file>
      <file>C:\Users\Sylmarie\Documents\LSL framework\App-MATLABViewer-master\liblsl-Matlab\bin\lsl_append_copy.mexw64</file>
      <file>C:\Users\Sylmarie\Documents\LSL framework\App-MATLABViewer-master\liblsl-Matlab\bin\lsl_child.mexw64</file>
      <file>C:\Users\Sylmarie\Documents\LSL framework\App-MATLABViewer-master\liblsl-Matlab\bin\lsl_child_value.mexw64</file>
      <file>C:\Users\Sylmarie\Documents\LSL framework\App-MATLABViewer-master\liblsl-Matlab\bin\lsl_child_value_n.mexw64</file>
      <file>C:\Users\Sylmarie\Documents\LSL framework\App-MATLABViewer-master\liblsl-Matlab\bin\lsl_create_outlet.mexw64</file>
      <file>C:\Users\Sylmarie\Documents\LSL framework\App-MATLABViewer-master\liblsl-Matlab\bin\lsl_create_streaminfo.mexw64</file>
      <file>C:\Users\Sylmarie\Documents\LSL framework\App-MATLABViewer-master\liblsl-Matlab\bin\lsl_destroy_outlet.mexw64</file>
      <file>C:\Users\Sylmarie\Documents\LSL framework\App-MATLABViewer-master\liblsl-Matlab\bin\lsl_destroy_streaminfo.mexw64</file>
      <file>C:\Users\Sylmarie\Documents\LSL framework\App-MATLABViewer-master\liblsl-Matlab\bin\lsl_empty.mexw64</file>
      <file>C:\Users\Sylmarie\Documents\LSL framework\App-MATLABViewer-master\liblsl-Matlab\bin\lsl_first_child.mexw64</file>
      <file>C:\Users\Sylmarie\Documents\LSL framework\App-MATLABViewer-master\liblsl-Matlab\bin\lsl_freelib_.mexw64</file>
      <file>C:\Users\Sylmarie\Documents\LSL framework\App-MATLABViewer-master\liblsl-Matlab\bin\lsl_get_channel_count.mexw64</file>
      <file>C:\Users\Sylmarie\Documents\LSL framework\App-MATLABViewer-master\liblsl-Matlab\bin\lsl_get_channel_format.mexw64</file>
      <file>C:\Users\Sylmarie\Documents\LSL framework\App-MATLABViewer-master\liblsl-Matlab\bin\lsl_get_created_at.mexw64</file>
      <file>C:\Users\Sylmarie\Documents\LSL framework\App-MATLABViewer-master\liblsl-Matlab\bin\lsl_get_desc.mexw64</file>
      <file>C:\Users\Sylmarie\Documents\LSL framework\App-MATLABViewer-master\liblsl-Matlab\bin\lsl_get_info.mexw64</file>
      <file>C:\Users\Sylmarie\Documents\LSL framework\App-MATLABViewer-master\liblsl-Matlab\bin\lsl_get_name.mexw64</file>
      <file>C:\Users\Sylmarie\Documents\LSL framework\App-MATLABViewer-master\liblsl-Matlab\bin\lsl_get_nominal_srate.mexw64</file>
      <file>C:\Users\Sylmarie\Documents\LSL framework\App-MATLABViewer-master\liblsl-Matlab\bin\lsl_get_session_id.mexw64</file>
      <file>C:\Users\Sylmarie\Documents\LSL framework\App-MATLABViewer-master\liblsl-Matlab\bin\lsl_get_source_id.mexw64</file>
      <file>C:\Users\Sylmarie\Documents\LSL framework\App-MATLABViewer-master\liblsl-Matlab\bin\lsl_get_type.mexw64</file>
      <file>C:\Users\Sylmarie\Documents\LSL framework\App-MATLABViewer-master\liblsl-Matlab\bin\lsl_get_uid.mexw64</file>
      <file>C:\Users\Sylmarie\Documents\LSL framework\App-MATLABViewer-master\liblsl-Matlab\bin\lsl_get_version.mexw64</file>
      <file>C:\Users\Sylmarie\Documents\LSL framework\App-MATLABViewer-master\liblsl-Matlab\bin\lsl_get_xml.mexw64</file>
      <file>C:\Users\Sylmarie\Documents\LSL framework\App-MATLABViewer-master\liblsl-Matlab\bin\lsl_have_consumers.mexw64</file>
      <file>C:\Users\Sylmarie\Documents\LSL framework\App-MATLABViewer-master\liblsl-Matlab\bin\lsl_is_text.mexw64</file>
      <file>C:\Users\Sylmarie\Documents\LSL framework\App-MATLABViewer-master\liblsl-Matlab\bin\lsl_last_child.mexw64</file>
      <file>C:\Users\Sylmarie\Documents\LSL framework\App-MATLABViewer-master\liblsl-Matlab\bin\lsl_loadlib_.mexw64</file>
      <file>C:\Users\Sylmarie\Documents\LSL framework\App-MATLABViewer-master\liblsl-Matlab\bin\lsl_local_clock.mexw64</file>
      <file>C:\Users\Sylmarie\Documents\LSL framework\App-MATLABViewer-master\liblsl-Matlab\bin\lsl_name.mexw64</file>
      <file>C:\Users\Sylmarie\Documents\LSL framework\App-MATLABViewer-master\liblsl-Matlab\bin\lsl_next_sibling.mexw64</file>
      <file>C:\Users\Sylmarie\Documents\LSL framework\App-MATLABViewer-master\liblsl-Matlab\bin\lsl_next_sibling_n.mexw64</file>
      <file>C:\Users\Sylmarie\Documents\LSL framework\App-MATLABViewer-master\liblsl-Matlab\bin\lsl_parent.mexw64</file>
      <file>C:\Users\Sylmarie\Documents\LSL framework\App-MATLABViewer-master\liblsl-Matlab\bin\lsl_prepend_child.mexw64</file>
      <file>C:\Users\Sylmarie\Documents\LSL framework\App-MATLABViewer-master\liblsl-Matlab\bin\lsl_prepend_copy.mexw64</file>
      <file>C:\Users\Sylmarie\Documents\LSL framework\App-MATLABViewer-master\liblsl-Matlab\bin\lsl_previous_sibling.mexw64</file>
      <file>C:\Users\Sylmarie\Documents\LSL framework\App-MATLABViewer-master\liblsl-Matlab\bin\lsl_previous_sibling_n.mexw64</file>
      <file>C:\Users\Sylmarie\Documents\LSL framework\App-MATLABViewer-master\liblsl-Matlab\bin\lsl_push_chunk.mexw64</file>
      <file>C:\Users\Sylmarie\Documents\LSL framework\App-MATLABViewer-master\liblsl-Matlab\bin\lsl_push_sample.mexw64</file>
      <file>C:\Users\Sylmarie\Documents\LSL framework\App-MATLABViewer-master\liblsl-Matlab\bin\lsl_remove_child.mexw64</file>
      <file>C:\Users\Sylmarie\Documents\LSL framework\App-MATLABViewer-master\liblsl-Matlab\bin\lsl_remove_child_n.mexw64</file>
      <file>C:\Users\Sylmarie\Documents\LSL framework\App-MATLABViewer-master\liblsl-Matlab\bin\lsl_set_child_value.mexw64</file>
      <file>C:\Users\Sylmarie\Documents\LSL framework\App-MATLABViewer-master\liblsl-Matlab\bin\lsl_set_name.mexw64</file>
      <file>C:\Users\Sylmarie\Documents\LSL framework\App-MATLABViewer-master\liblsl-Matlab\bin\lsl_set_value.mexw64</file>
      <file>C:\Users\Sylmarie\Documents\LSL framework\App-MATLABViewer-master\liblsl-Matlab\bin\lsl_value.mexw64</file>
      <file>C:\Users\Sylmarie\Documents\LSL framework\App-MATLABViewer-master\liblsl-Matlab\bin\lsl_wait_for_consumers.mexw64</file>
      <file>C:\Users\Sylmarie\Documents\LSL framework\App-MATLABViewer-master\liblsl-Matlab\lsl_get_dll.m</file>
      <file>C:\Users\Sylmarie\Documents\LSL framework\App-MATLABViewer-master\liblsl-Matlab\lsl_loadlib.m</file>
      <file>C:\Users\Sylmarie\Documents\LSL framework\App-MATLABViewer-master\liblsl-Matlab\lsl_outlet.m</file>
      <file>C:\Users\Sylmarie\Documents\LSL framework\App-MATLABViewer-master\liblsl-Matlab\lsl_streaminfo.m</file>
      <file>C:\Users\Sylmarie\Documents\LSL framework\App-MATLABViewer-master\liblsl-Matlab\lsl_xml_ptr.m</file>
      <file>${PROJECT_ROOT}\FilterClass.m</file>
      <file>${PROJECT_ROOT}\SetEnabledSensorsMacrosClass.m</file>
      <file>${PROJECT_ROOT}\ShimmerHandleClass.m</file>
    </fileset.depfun>
    <build-deliverables>
      <file location="${PROJECT_ROOT}\ShimmertoLSLapp_np\for_testing" name="ShimmertoLSLapp_np.exe" optional="false">C:\Users\Sylmarie\Documents\MATLAB\Shimmer Matlab Instrument Driver v2.8\Shimmer Matlab Instrument Driver v2.8\ShimmertoLSLapp_np\for_testing\ShimmertoLSLapp_np.exe</file>
      <file location="${PROJECT_ROOT}\ShimmertoLSLapp_np\for_testing" name="readme.txt" optional="true">C:\Users\Sylmarie\Documents\MATLAB\Shimmer Matlab Instrument Driver v2.8\Shimmer Matlab Instrument Driver v2.8\ShimmertoLSLapp_np\for_testing\readme.txt</file>
      <file location="${PROJECT_ROOT}\ShimmertoLSLapp_np\for_testing" name="splash.png" optional="false">C:\Users\Sylmarie\Documents\MATLAB\Shimmer Matlab Instrument Driver v2.8\Shimmer Matlab Instrument Driver v2.8\ShimmertoLSLapp_np\for_testing\splash.png</file>
    </build-deliverables>
    <workflow />
    <matlab>
      <root>C:\Program Files\MATLAB\R2019b</root>
      <toolboxes>
        <toolbox name="neuralnetwork" />
      </toolboxes>
      <toolbox>
        <neuralnetwork>
          <enabled>true</enabled>
        </neuralnetwork>
      </toolbox>
    </matlab>
    <platform>
      <unix>false</unix>
      <mac>false</mac>
      <windows>true</windows>
      <win2k>false</win2k>
      <winxp>false</winxp>
      <vista>false</vista>
      <linux>false</linux>
      <solaris>false</solaris>
      <osver>10.0</osver>
      <os32>false</os32>
      <os64>true</os64>
      <arch>win64</arch>
      <matlab>true</matlab>
    </platform>
  </configuration>
</deployment-project>